{
  "license": "License is unknown",
  "copyright": "https://github.com/ss220-space/Paradise/tree/7d14d0d125101ba831ea656a3c20e3517cb646e2",
  "version": 1,
  "size": {
    "x": 32,
    "y": 32
  },
  "states": [
    {
      "name": "alive",
      "directions": 4
    },
    {
      "name": "dead"
    }
  ]
}